CMOR Lunch'n'Learn – Introduction to R
…
purrr: functional programming

stringr: working with character strings

forcats: working with factor variables

Data frames

Reading in a data frame with read_csv():

library(tidyverse)
gapminder <- read_csv("raw_data/gapminder_data.csv")
gapminder

# A tibble: 1,704 × 6
   country      year      pop continent lifeExp gdpPercap
   <chr>       <dbl>    <dbl> <chr>       <dbl>     <dbl>
 1 Afghanistan  1952  8425333 Asia         28.8      779.
 2 Afghanistan  1957  9240934 Asia         30.3      821.
 3 Afghanistan  1962 10267083 Asia         32.0      853.
 4 Afghanistan  1967 11537966 Asia         34.0      836.
 5 Afghanistan  1972 13079460 Asia         36.1      740.
 6 Afghanistan  1977 14880372 Asia         38.4      786.
 7 Afghanistan  1982 12881816 Asia         39.9      978.
 8 Afghanistan  1987 13867957 Asia         40.8      852.
 9 Afghanistan  1992 16317921 Asia         41.7      649.
10 Afghanistan  1997 22227415 Asia         41.8      635.
# ℹ 1,694 more rows

Manipulating data frames with dplyr

select() only a subset of variables

select(gapminder, year, country, gdpPercap)

# A tibble: 1,704 × 3
    year country     gdpPercap
   <dbl> <chr>           <dbl>
 1  1952 Afghanistan      779.
 2  1957 Afghanistan      821.
 3  1962 Afghanistan      853.
 4  1967 Afghanistan      836.
 5  1972 Afghanistan      740.
 6  1977 Afghanistan      786.
 7  1982 Afghanistan      978.
 8  1987 Afghanistan      852.
 9  1992 Afghanistan      649.
10  1997 Afghanistan      635.
# ℹ 1,694 more rows

Manipulating data frames with dplyr

filter() only a subset of observations

filter(gapminder, continent == "Europe", year == 2007)

# A tibble: 30 × 6
   country                 year      pop continent lifeExp gdpPercap
   <chr>                  <dbl>    <dbl> <chr>       <dbl>     <dbl>
 1 Albania                 2007  3600523 Europe       76.4     5937.
 2 Austria                 2007  8199783 Europe       79.8    36126.
 3 Belgium                 2007 10392226 Europe       79.4    33693.
 4 Bosnia and Herzegovina  2007  4552198 Europe       74.9     7446.
 5 Bulgaria                2007  7322858 Europe       73.0    10681.
 6 Croatia                 2007  4493312 Europe       75.7    14619.
 7 Czech Republic          2007 10228744 Europe       76.5    22833.
 8 Denmark                 2007  5468120 Europe       78.3    35278.
 9 Finland                 2007  5238460 Europe       79.3    33207.
10 France                  2007 61083916 Europe       80.7    30470.
# ℹ 20 more rows

Manipulating data frames with dplyr

mutate() to create new variables

mutate(gapminder, gdp_billion = gdpPercap * pop / 10^9)

# A tibble: 1,704 × 7
   country      year      pop continent lifeExp gdpPercap gdp_billion
   <chr>       <dbl>    <dbl> <chr>       <dbl>     <dbl>       <dbl>
 1 Afghanistan  1952  8425333 Asia         28.8      779.        6.57
 2 Afghanistan  1957  9240934 Asia         30.3      821.        7.59
 3 Afghanistan  1962 10267083 Asia         32.0      853.        8.76
 4 Afghanistan  1967 11537966 Asia         34.0      836.        9.65
 5 Afghanistan  1972 13079460 Asia         36.1      740.        9.68
 6 Afghanistan  1977 14880372 Asia         38.4      786.       11.7 
 7 Afghanistan  1982 12881816 Asia         39.9      978.       12.6 
 8 Afghanistan  1987 13867957 Asia         40.8      852.       11.8 
 9 Afghanistan  1992 16317921 Asia         41.7      649.       10.6 
10 Afghanistan  1997 22227415 Asia         41.8      635.       14.1 
# ℹ 1,694 more rows
…
These are known as ‘long’ and ‘wide’ format, respectively

Reshaping data frames

The tidyr package helps us transform our data from one shape to the other

pivot_wider() takes a long dataset and makes it wider

pivot_longer() takes a wide dataset and makes it longer

Recall our original dataset

gapminder

# A tibble: 1,704 × 6
   country      year      pop continent lifeExp gdpPercap
   <chr>       <dbl>    <dbl> <chr>       <dbl>     <dbl>
 1 Afghanistan  1952  8425333 Asia         28.8      779.
 2 Afghanistan  1957  9240934 Asia         30.3      821.
 3 Afghanistan  1962 10267083 Asia         32.0      853.
 4 Afghanistan  1967 11537966 Asia         34.0      836.
 5 Afghanistan  1972 13079460 Asia         36.1      740.
 6 Afghanistan  1977 14880372 Asia         38.4      786.
 7 Afghanistan  1982 12881816 Asia         39.9      978.
 8 Afghanistan  1987 13867957 Asia         40.8      852.
 9 Afghanistan  1992 16317921 Asia         41.7      649.
10 Afghanistan  1997 22227415 Asia         41.8      635.
# ℹ 1,694 more rows

Reshaping data frames

We can reshape this to be wider (one row per country)

gapminder_wide <- gapminder %>% 
  pivot_wider(id_cols = c(country, continent),
              names_from = year, values_from = c(pop, lifeExp, gdpPercap))
gapminder_wide

# A tibble: 142 × 38
   country     continent pop_1952 pop_1957 pop_1962 pop_1967 pop_1972 pop_1977
   <chr>       <chr>        <dbl>    <dbl>    <dbl>    <dbl>    <dbl>    <dbl>
 1 Afghanistan Asia       8425333  9240934 10267083 11537966 13079460 14880372
 2 Albania     Europe     1282697  1476505  1728137  1984060  2263554  2509048
 3 Algeria     Africa     9279525 10270856 11000948 12760499 14760787 17152804
 4 Angola      Africa     4232095  4561361  4826015  5247469  5894858  6162675
 5 Argentina   Americas  17876956 19610538 21283783 22934225 24779799 26983828
 6 Australia   Oceania    8691212  9712569 10794968 11872264 13177000 14074100
 7 Austria     Europe     6927772  6965860  7129864  7376998  7544201  7568430
 8 Bahrain     Asia        120447   138655   171863   202182   230800   297410
 9 Bangladesh  Asia      46886859 51365468 56839289 62821884 70759295 80428306
10 Belgium     Europe     8730405  8989111  9218400  9556500  9709100  9821800
# ℹ 132 more rows
# ℹ 30 more variables: pop_1982 <dbl>, pop_1987 <dbl>, pop_1992 <dbl>,
#   pop_1997 <dbl>, pop_2002 <dbl>, pop_2007 <dbl>, lifeExp_1952 <dbl>,
#   lifeExp_1957 <dbl>, lifeExp_1962 <dbl>, lifeExp_1967 <dbl>,
#   lifeExp_1972 <dbl>, lifeExp_1977 <dbl>, lifeExp_1982 <dbl>,
#   lifeExp_1987 <dbl>, lifeExp_1992 <dbl>, lifeExp_1997 <dbl>,
#   lifeExp_2002 <dbl>, lifeExp_2007 <dbl>, gdpPercap_1952 <dbl>, …

Reshaping data frames

Often raw data will come in a wide format, and we want to reshape it longer for data analysis

gapminder_wide %>% 
  pivot_longer(pop_1952:gdpPercap_2007,
               names_to = c(".value", "year"), names_sep = "_")

# A tibble: 1,704 × 6
   country     continent year       pop lifeExp gdpPercap
   <chr>       <chr>     <chr>    <dbl>   <dbl>     <dbl>
 1 Afghanistan Asia      1952   8425333    28.8      779.
 2 Afghanistan Asia      1957   9240934    30.3      821.
 3 Afghanistan Asia      1962  10267083    32.0      853.
 4 Afghanistan Asia      1967  11537966    34.0      836.
 5 Afghanistan Asia      1972  13079460    36.1      740.
 6 Afghanistan Asia      1977  14880372    38.4      786.
 7 Afghanistan Asia      1982  12881816    39.9      978.
 8 Afghanistan Asia      1987  13867957    40.8      852.
 9 Afghanistan Asia      1992  16317921    41.7      649.
10 Afghanistan Asia      1997  22227415    41.8      635.
# ℹ 1,694 more rows
…
